…
If, for example, we wanted to move forward with only a few of the variables in
our tibble we use the `select()` function. This will keep only the
variables you select.


~~~
brca_molecular <- select(brca, PATIENT_ID, ER_STATUS, PR_STATUS, HER2_STATUS, AGE, SEX, OS_MONTHS)
print(brca_molecular)
~~~
{: .language-r}



~~~
# A tibble: 894 x 7
   PATIENT_ID    ER_STATUS PR_STATUS    HER2_STATUS    AGE SEX   OS_MONTHS
   <chr>         <chr>     <chr>        <chr>        <int> <fct>     <dbl>
 1 TCGA-A2-A0T2… Negative  Negative     Negative        66 FEMA…      7.89
 2 TCGA-A2-A04P… Negative  Negative     Negative        36 FEMA…     18.0 
 3 TCGA-A1-A0SK… Negative  Negative     Negative        54 FEMA…     31.8 
 4 TCGA-A2-A0CM… Negative  Negative     Negative        40 FEMA…     24.8 
 5 TCGA-AR-A1AR… Negative  Negative     Negative        50 FEMA…     17.2 
 6 TCGA-B6-A0WX… Negative  Negative     Negative        40 FEMA…     21.4 
 7 TCGA-BH-A1F0… Negative  Indetermina… Negative        80 FEMA…     25.8 
 8 TCGA-B6-A0I6… Negative  Negative     Not Availab…    49 FEMA…     32.8 
 9 TCGA-BH-A18V… Negative  Negative     Negative        48 FEMA…     51.1 
10 TCGA-BH-A18Q… Negative  Negative     Negative        56 FEMA…     55.6 
# ... with 884 more rows
…
## Using `filter()`

The `filter()` function is used to select rows of data.  For example, to select only HER2 positive patients:


~~~
brca_her2 <- filter(brca, HER2_STATUS=="Positive")
print(brca_her2)
~~~
{: .language-r}



~~~
# A tibble: 114 x 30
   SAMPLE_ID PATIENT_ID ER_STATUS PR_STATUS HER2_STATUS TUMOR_STAGE
   <chr>     <chr>      <chr>     <chr>     <chr>       <chr>      
 1 TCGA-A8-… TCGA-A8-A… Positive  Positive  Positive    T2         
 2 TCGA-E2-… TCGA-E2-A… Positive  Positive  Positive    T2         
 3 TCGA-B6-… TCGA-B6-A… Indeterm… Positive  Positive    T3         
 4 TCGA-BH-… TCGA-BH-A… Indeterm… Negative  Positive    T2         
 5 TCGA-AR-… TCGA-AR-A… Positive  Positive  Positive    T2         
 6 TCGA-BH-… TCGA-BH-A… Positive  Positive  Positive    T2         
 7 TCGA-A2-… TCGA-A2-A… Negative  Negative  Positive    T3         
 8 TCGA-BH-… TCGA-BH-A… Positive  Negative  Positive    T1         
 9 TCGA-BH-… TCGA-BH-A… Negative  Negative  Positive    T3         
10 TCGA-A2-… TCGA-A2-A… Negative  Negative  Positive    T2         
# ... with 104 more rows, and 24 more variables: TUMOR_T1_CODED <chr>,
#   NODES <chr>, NODE_CODED <chr>, METASTASIS_CODED <chr>,
#   CONVERTED_STAGE <chr>, SURVIVAL_DATA_FORM <chr>, PAM50_SUBTYPE <chr>,
#   SIGCLUST_UNSUPERVISED_MRNA <dbl>, SIGCLUST_INTRINSIC_MRNA <dbl>,
#   MIRNA_CLUSTER <dbl>, METHYLATION_CLUSTER <dbl>, RPPA_CLUSTER <chr>,
#   CN_CLUSTER <dbl>, INTEGRATED_CLUSTERS_WITH_PAM50 <dbl>,
#   INTEGRATED_CLUSTERS_NO_EXP <dbl>, INTEGRATED_CLUSTERS_UNSUP_EXP <dbl>,
#   CANCER_TYPE_DETAILED <chr>, ONCOTREE_CODE <chr>, CANCER_TYPE <chr>,
#   SEX <fct>, AGE <int>, METASTASIS <fct>, OS_STATUS <fct>,
…
Let's rewrite the select command example using the pipe operator:


~~~
brca_molecular <- brca %>% select(PATIENT_ID, ER_STATUS, PR_STATUS, HER2_STATUS, AGE, SEX, OS_MONTHS)
print(brca_molecular)
~~~
{: .language-r}



~~~
# A tibble: 894 x 7
   PATIENT_ID    ER_STATUS PR_STATUS    HER2_STATUS    AGE SEX   OS_MONTHS
   <chr>         <chr>     <chr>        <chr>        <int> <fct>     <dbl>
 1 TCGA-A2-A0T2… Negative  Negative     Negative        66 FEMA…      7.89
 2 TCGA-A2-A04P… Negative  Negative     Negative        36 FEMA…     18.0 
 3 TCGA-A1-A0SK… Negative  Negative     Negative        54 FEMA…     31.8 
 4 TCGA-A2-A0CM… Negative  Negative     Negative        40 FEMA…     24.8 
 5 TCGA-AR-A1AR… Negative  Negative     Negative        50 FEMA…     17.2 
 6 TCGA-B6-A0WX… Negative  Negative     Negative        40 FEMA…     21.4 
 7 TCGA-BH-A1F0… Negative  Indetermina… Negative        80 FEMA…     25.8 
 8 TCGA-B6-A0I6… Negative  Negative     Not Availab…    49 FEMA…     32.8 
 9 TCGA-BH-A18V… Negative  Negative     Negative        48 FEMA…     51.1 
10 TCGA-BH-A18Q… Negative  Negative     Negative        56 FEMA…     55.6 
# ... with 884 more rows
…
~~~
brca_molecular_her2 <- brca %>% 
  filter(HER2_STATUS=="Positive") %>% 
  select(PATIENT_ID, ER_STATUS, PR_STATUS, HER2_STATUS, AGE, SEX, OS_MONTHS)
print(brca_molecular_her2)
~~~
{: .language-r}



~~~
# A tibble: 114 x 7
   PATIENT_ID     ER_STATUS    PR_STATUS HER2_STATUS   AGE SEX   OS_MONTHS
   <chr>          <chr>        <chr>     <chr>       <int> <fct>     <dbl>
 1 TCGA-A8-A08H-… Positive     Positive  Positive       66 FEMA…       0  
 2 TCGA-E2-A14Y-… Positive     Positive  Positive       35 FEMA…      22.6
 3 TCGA-B6-A0I9-… Indetermina… Positive  Positive       62 FEMA…      12.1
 4 TCGA-BH-A18R-… Indetermina… Negative  Positive       50 FEMA…      37.5
 5 TCGA-AR-A1AT-… Positive     Positive  Positive       62 FEMA…      41.8
 6 TCGA-BH-A0DZ-… Positive     Positive  Positive       43 FEMA…      16.3
 7 TCGA-A2-A0T1-… Negative     Negative  Positive       55 FEMA…      17.1
 8 TCGA-BH-A0AW-… Positive     Negative  Positive       56 FEMA…      20.4
 9 TCGA-BH-A0EE-… Negative     Negative  Positive       68 FEMA…      31.0
10 TCGA-A2-A0D1-… Negative     Negative  Positive       76 FEMA…      34.5
# ... with 104 more rows
…
~~~
brca_molecular_her2 <- brca %>% 
  filter(HER2_STATUS %in% c("Positive", "Negative")) %>% 
  select(PATIENT_ID, ER_STATUS, PR_STATUS, HER2_STATUS, AGE, SEX, OS_MONTHS)
  
print(brca_molecular_her2)
~~~
{: .language-r}



~~~
# A tibble: 766 x 7
   PATIENT_ID     ER_STATUS PR_STATUS    HER2_STATUS   AGE SEX   OS_MONTHS
   <chr>          <chr>     <chr>        <chr>       <int> <fct>     <dbl>
 1 TCGA-A2-A0T2-… Negative  Negative     Negative       66 FEMA…      7.89
 2 TCGA-A2-A04P-… Negative  Negative     Negative       36 FEMA…     18.0 
 3 TCGA-A1-A0SK-… Negative  Negative     Negative       54 FEMA…     31.8 
 4 TCGA-A2-A0CM-… Negative  Negative     Negative       40 FEMA…     24.8 
 5 TCGA-AR-A1AR-… Negative  Negative     Negative       50 FEMA…     17.2 
 6 TCGA-B6-A0WX-… Negative  Negative     Negative       40 FEMA…     21.4 
 7 TCGA-BH-A1F0-… Negative  Indetermina… Negative       80 FEMA…     25.8 
 8 TCGA-BH-A18V-… Negative  Negative     Negative       48 FEMA…     51.1 
 9 TCGA-BH-A18Q-… Negative  Negative     Negative       56 FEMA…     55.6 
10 TCGA-BH-A18K-… Positive  Positive     Negative       46 FEMA…     90.8 
# ... with 756 more rows
…
The `arrange()` function will sort a tibble by one or more of the variables in it:


~~~
brca_molecular_her2 %>%
  filter(HER2_STATUS=="Positive", ER_STATUS=="Positive") %>% 
  arrange(OS_MONTHS)
~~~
{: .language-r}



~~~
# A tibble: 79 x 7
   PATIENT_ID      ER_STATUS PR_STATUS HER2_STATUS   AGE SEX    OS_MONTHS
   <chr>           <chr>     <chr>     <chr>       <int> <fct>      <dbl>
 1 TCGA-A8-A08H-01 Positive  Positive  Positive       66 FEMALE      0   
 2 TCGA-A8-A09G-01 Positive  Negative  Positive       79 FEMALE      0   
 3 TCGA-C8-A12T-01 Positive  Positive  Positive       43 FEMALE      0   
 4 TCGA-C8-A132-01 Positive  Positive  Positive       56 FEMALE      0   
 5 TCGA-D8-A1JB-01 Positive  Positive  Positive       54 FEMALE      0   
 6 TCGA-E9-A1N6-01 Positive  Positive  Positive       52 FEMALE      0   
 7 TCGA-E9-A22D-01 Positive  Positive  Positive       38 FEMALE      0   
 8 TCGA-C8-A1HL-01 Positive  Negative  Positive       38 FEMALE      0.07
 9 TCGA-C8-A138-01 Positive  Negative  Positive       54 FEMALE      0.23
10 TCGA-C8-A26W-01 Positive  Positive  Positive       58 FEMALE      0.23
# ... with 69 more rows
…
~~~
brca_molecular_her2 %>%
  filter(HER2_STATUS=="Positive", ER_STATUS=="Positive") %>% 
  arrange( desc(OS_MONTHS) )
~~~
{: .language-r}



~~~
# A tibble: 79 x 7
   PATIENT_ID      ER_STATUS PR_STATUS HER2_STATUS   AGE SEX    OS_MONTHS
   <chr>           <chr>     <chr>     <chr>       <int> <fct>      <dbl>
 1 TCGA-B6-A0RH-01 Positive  Positive  Positive       51 FEMALE     189. 
 2 TCGA-AQ-A04L-01 Positive  Negative  Positive       48 FEMALE     110. 
 3 TCGA-BH-A18M-01 Positive  Positive  Positive       39 FEMALE      72.5
 4 TCGA-AO-A12C-01 Positive  Positive  Positive       42 FEMALE      65.5
 5 TCGA-AO-A0JM-01 Positive  Positive  Positive       40 FEMALE      60.0
 6 TCGA-BH-A0B7-01 Positive  Positive  Positive       42 FEMALE      56.9
 7 TCGA-A2-A0CX-01 Positive  Negative  Positive       52 FEMALE      56.8
 8 TCGA-AR-A250-01 Positive  Negative  Positive       58 FEMALE      56.1
 9 TCGA-A2-A04X-01 Positive  Positive  Positive       34 FEMALE      55.4
10 TCGA-A8-A076-01 Positive  Positive  Positive       66 FEMALE      53.9
# ... with 69 more rows
…
We can also use functions within mutate to generate new variables.  For example, to take the log of `OS_MONTHS` we could use:


~~~
brca_molecular_her2 %>% 
  mutate(logOS = log(OS_MONTHS))
~~~
{: .language-r}



~~~
# A tibble: 766 x 8
   PATIENT_ID  ER_STATUS PR_STATUS HER2_STATUS   AGE SEX   OS_MONTHS logOS
   <chr>       <chr>     <chr>     <chr>       <int> <fct>     <dbl> <dbl>
 1 TCGA-A2-A0… Negative  Negative  Negative       66 FEMA…      7.89  2.07
 2 TCGA-A2-A0… Negative  Negative  Negative       36 FEMA…     18.0   2.89
 3 TCGA-A1-A0… Negative  Negative  Negative       54 FEMA…     31.8   3.46
 4 TCGA-A2-A0… Negative  Negative  Negative       40 FEMA…     24.8   3.21
 5 TCGA-AR-A1… Negative  Negative  Negative       50 FEMA…     17.2   2.84
 6 TCGA-B6-A0… Negative  Negative  Negative       40 FEMA…     21.4   3.07
 7 TCGA-BH-A1… Negative  Indeterm… Negative       80 FEMA…     25.8   3.25
 8 TCGA-BH-A1… Negative  Negative  Negative       48 FEMA…     51.1   3.93
 9 TCGA-BH-A1… Negative  Negative  Negative       56 FEMA…     55.6   4.02
10 TCGA-BH-A1… Positive  Positive  Negative       46 FEMA…     90.8   4.51
# ... with 756 more rows
…
The `ifelse()` function takes three parameters.  The first it the logical test.  The second is the value to use if the test is TRUE for that observation, and the third is the value to use if the test is FALSE.


~~~
# Categorize patients into "young" and "old" based on age.
brca %>%
  mutate(age_group = ifelse(AGE > 50, "old", "young")) %>% 
  select(PATIENT_ID, AGE, age_group)
~~~
{: .language-r}



~~~
# A tibble: 894 x 3
   PATIENT_ID        AGE age_group
   <chr>           <int> <chr>    
 1 TCGA-A2-A0T2-01    66 old      
 2 TCGA-A2-A04P-01    36 young    
 3 TCGA-A1-A0SK-01    54 old      
 4 TCGA-A2-A0CM-01    40 young    
 5 TCGA-AR-A1AR-01    50 young    
 6 TCGA-B6-A0WX-01    40 young    
 7 TCGA-BH-A1F0-01    80 old      
 8 TCGA-B6-A0I6-01    49 young    
 9 TCGA-BH-A18V-01    48 young    
10 TCGA-BH-A18Q-01    56 old      
# ... with 884 more rows
…
